[{"id":1,"name":"Games","is_active":false,"created_at":"2022-06-15"},
{"id":2,"name":"Electronics Video","is_active":false,"created_at":"2022-07-25"},
{"id":3,"name":"Music","is_active":false,"created_at":"2022-08-14"},
{"id":4,"name":"Home","is_active":true,"created_at":"2022-07-30"},
{"id":5,"name":"Health","is_active":false,"created_at":"2022-07-28"},
{"id":6,"name":"Baby","is_active":false,"created_at":"2022-07-10"},
{"id":7,"name":"Baby Health","is_active":false,"created_at":"2022-07-05"},
{"id":8,"name":"Grocery","is_active":false,"created_at":"2022-08-03"},
{"id":9,"name":"Shoes Sneakers","is_active":true,"created_at":"2022-09-05"},
{"id":10,"name":"Electronics","is_active":false,"created_at":"2022-08-27"},
{"id":11,"name":"Movies","is_active":true,"created_at":"2022-09-03"},
{"id":12,"name":"Games PC","is_active":true,"created_at":"2022-09-04"},
{"id":13,"name":"Kids","is_active":true,"created_at":"2022-06-19"},
{"id":14,"name":"Shoes Flat","is_active":true,"created_at":"2022-08-29"},
{"id":15,"name":"Garden","is_active":true,"created_at":"2022-07-09"},
{"id":16,"name":"Extreme Sports","is_active":true,"created_at":"2022-08-19"},
{"id":17,"name":"Computers","is_active":false,"created_at":"2022-07-13"},
{"id":18,"name":"Sports","is_active":true,"created_at":"2022-06-13"},
{"id":19,"name":"Electronics Audio","is_active":true,"created_at":"2022-08-15"},
{"id":20,"name":"Laptops","is_active":false,"created_at":"2022-08-11"},
{"id":21,"name":"Shoes Leather","is_active":true,"created_at":"2022-07-14"},
{"id":22,"name":"Outdoors","is_active":false,"created_at":"2022-08-10"}]